3	4	2	2
2.5	1.5	1   2   1   0   3.5 1.3 1
0   1   0   1  		
1   0
0   1
0   C   1   D
1	C	0	D
2	C	1	U
3	C	0	U
4	C	1	U
5   C	1	U
6   C	0	S
7	C	1	D
8   L   0   P
9   L   0   R D
10  L   0   G D
11  L   0   B D
12  L   0   R D
13  L   1   P
14	C	1	U
15  L   1   R D
16  L   1   R D
17  L   1   R D
18  C   0   D
